[gd_scene load_steps=4 format=3 uid="uid://docggd4uo4auv"]

[sub_resource type="CapsuleShape3D" id="CapsuleShape3D_o5g1k"]
radius = 0.3
height = 1.7

[sub_resource type="StandardMaterial3D" id="StandardMaterial3D_1w44g"]
albedo_color = Color(0.231373, 0.498039, 0.521569, 1)

[sub_resource type="CapsuleMesh" id="CapsuleMesh_mcpoa"]
material = SubResource("StandardMaterial3D_1w44g")
radius = 0.3
height = 1.7

[node name="NPC" type="CharacterBody3D" groups=["spots"]]

[node name="CollisionShape3D" type="CollisionShape3D" parent="."]
shape = SubResource("CapsuleShape3D_o5g1k")

[node name="MeshInstance3D" type="MeshInstance3D" parent="."]
mesh = SubResource("CapsuleMesh_mcpoa")
